{
  "info": {
    "_postman_id": "10bdb170-a123-42a4-91c5-ee19086b696d",
    "name": "Bookipedia Tests",
    "schema": "https://schema.getpostman.com/json/collection/v2.1.0/collection.json"
  },
  "item": [
    {
      "name": "GET books",
      "event": [
        {
          "listen": "test",
          "script": {
            "exec": [
              "pm.test(\"Status code is 200\", function() {",
              "    pm.response.to.have.status(200)",
              "})",
              "",
              "pm.test(\"Response keys are valid\", function() {",
              "    const keys = Object.keys(pm.response.json())",
              "    pm.expect(keys).include(\"books\")",
              "})",
              "",
              "pm.test(\"Response contains 12 books\", function() {",
              "    const books = pm.response.json().books;",
              "    pm.expect(Object.keys(books).length).equal(12)",
              "})",
              "",
              ""
            ],
            "type": "text/javascript"
          }
        }
      ],
      "request": {
        "method": "GET",
        "header": [],
        "url": {
          "raw": "https://api.bookipedia.me/api/books",
          "protocol": "https",
          "host": ["api", "bookipedia", "me"],
          "path": ["api", "books"]
        }
      },
      "response": []
    },
    {
      "name": "GET single book",
      "event": [
        {
          "listen": "test",
          "script": {
            "exec": [
              "pm.test(\"Status code is 200\", function() {",
              "    pm.response.to.have.status(200)",
              "})",
              "",
              "pm.test(\"Response keys are valid\", function() {",
              "    const keys = Object.keys(pm.response.json())",
              "    pm.expect(keys).include(\"book\")",
              "    pm.expect(keys).include(\"book_author\")",
              "})",
              "",
              "pm.test(\"Response has correct id\", function() {",
              "    const id = pm.response.json().book.book_id",
              "    pm.expect(id).equal(\"9780140067484\")",
              "})",
              "",
              ""
            ],
            "type": "text/javascript"
          }
        }
      ],
      "request": {
        "method": "GET",
        "header": [],
        "url": {
          "raw": "https://api.bookipedia.me/api/book/9780140067484",
          "protocol": "https",
          "host": ["api", "bookipedia", "me"],
          "path": ["api", "book", "9780140067484"]
        }
      },
      "response": []
    },
    {
      "name": "GET authors",
      "event": [
        {
          "listen": "test",
          "script": {
            "exec": [
              "pm.test(\"Status code is 200\", function() {",
              "    pm.response.to.have.status(200)",
              "})",
              "",
              "pm.test(\"Response keys are valid\", function() {",
              "    const keys = Object.keys(pm.response.json())",
              "    pm.expect(keys).include(\"authors\")",
              "})",
              "",
              "pm.test(\"Response contains 12 authors\", function() {",
              "    const authors = pm.response.json().authors",
              "    pm.expect(Object.keys(authors).length).equal(12)",
              "})",
              ""
            ],
            "type": "text/javascript"
          }
        }
      ],
      "request": {
        "method": "GET",
        "header": [],
        "url": {
          "raw": "https://api.bookipedia.me/api/authors",
          "protocol": "https",
          "host": ["api", "bookipedia", "me"],
          "path": ["api", "authors"]
        }
      },
      "response": []
    },
    {
      "name": "GET single author",
      "event": [
        {
          "listen": "test",
          "script": {
            "exec": [
              "pm.test(\"Status code is 200\", function() {",
              "    pm.response.to.have.status(200)",
              "})",
              "",
              "pm.test(\"Response keys are valid\", function() {",
              "    const keys = Object.keys(pm.response.json())",
              "    pm.expect(keys).include(\"author\")",
              "    pm.expect(keys).include(\"books_written\")",
              "})",
              "",
              "pm.test(\"Response has correct id\", function() {",
              "    const id = pm.response.json().author.auth_id;",
              "    pm.expect(id).equal(14)",
              "})"
            ],
            "type": "text/javascript"
          }
        }
      ],
      "request": {
        "method": "GET",
        "header": [],
        "url": {
          "raw": "https://api.bookipedia.me/api/author/14",
          "protocol": "https",
          "host": ["api", "bookipedia", "me"],
          "path": ["api", "author", "14"]
        }
      },
      "response": []
    },
    {
      "name": "GET libraries",
      "event": [
        {
          "listen": "test",
          "script": {
            "exec": [
              "pm.test(\"Status code is 200\", function() {",
              "    pm.response.to.have.status(200)",
              "})",
              "",
              "pm.test(\"Response keys are valid\", function() {",
              "    const keys = Object.keys(pm.response.json())",
              "    pm.expect(keys).include(\"libraries\")",
              "})",
              "",
              "pm.test(\"Response contains 12 libraries\", function() {",
              "    const libraries = pm.response.json().libraries;",
              "    pm.expect(Object.keys(libraries).length).equal(12)",
              "})",
              "",
              ""
            ],
            "type": "text/javascript"
          }
        }
      ],
      "request": {
        "method": "GET",
        "header": [],
        "url": {
          "raw": "https://api.bookipedia.me/api/libraries",
          "protocol": "https",
          "host": ["api", "bookipedia", "me"],
          "path": ["api", "libraries"]
        }
      },
      "response": []
    },
    {
      "name": "GET single library",
      "event": [
        {
          "listen": "test",
          "script": {
            "exec": [
              "pm.test(\"Status code is 200\", function() {",
              "    pm.response.to.have.status(200)",
              "})",
              "",
              "pm.test(\"Response keys are valid\", function() {",
              "    const keys = Object.keys(pm.response.json())",
              "    pm.expect(keys).include(\"library\")",
              "})",
              "",
              "pm.test(\"Response has correct id\", function() {",
              "    const id = pm.response.json().library.id;",
              "    pm.expect(id).equal(1)",
              "})"
            ],
            "type": "text/javascript"
          }
        }
      ],
      "request": {
        "method": "GET",
        "header": [],
        "url": {
          "raw": "https://api.bookipedia.me/api/library/1",
          "protocol": "https",
          "host": ["api", "bookipedia", "me"],
          "path": ["api", "library", "1"]
        }
      },
      "response": []
    }
  ]
}
